code_naf;intitule_naf
120;Fabrication de produits à base de tabac
163;Traitement primaire des récoltes
1391Z;Fabrication d'étoffes à mailles
114;Culture de la canne à sucre
161;Sciage et rabotage du bois
0220Z;Exploitation forestière
11;Fabrication de boissons
10;Industries alimentaires
1081;Fabrication de sucre
1320;Tissage
2823Z;Fabrication de machines et d'équipements de bureau (à l'exception des ordinateurs et équipements périphériques)
4782;Commerce de détail de textiles, d'habillement et de chaussures sur éventaires et marchés
4774;Commerce de détail d'articles médicaux et orthopédiques en magasin spécialisé
4614Z;Intermédiaires du commerce en machines, équipements industriels, navires et avions
2711Z;Fabrication de moteurs, génératrices et transformateurs électriques
4763Z;Commerce de détail d'enregistrements musicaux et vidéo en magasin spécialisé
4676Z;Commerce de gros (commerce interentreprises) d'autres produits intermédiaires
4645;Commerce de gros de parfumerie et de produits de beauté
4719;Autre commerce de détail en magasin non spécialisé
251;Fabrication d'éléments en métal pour la construction
1020Z;Transformation et conservation de poisson, de crustacés et de mollusques
1729;Fabrication d'autres articles en papier ou en carton
1051;Exploitation de laiteries et fabrication de fromage
2752Z;Fabrication d'appareils ménagers non électriques
2740Z;Fabrication d'appareils d'éclairage électrique
261;Fabrication de composants et cartes électroniques
2370;Taille, façonnage et finissage de pierres
1712Z;Fabrication de papier et de carton
2821;Fabrication de fours et brûleurs
812;Exploitation de gravières et sablières, extraction d’argiles et de kaolin
3822;Traitement et élimination des déchets dangereux
3011Z;Construction de navires et de structures flottantes
3522;Distribution de combustibles gazeux par conduites
2822;Fabrication de matériel de levage et de manutention
4519;Commerce d'autres véhicules automobiles
3299;Autres activités manufacturières n.c.a.
2849;Fabrication d'autres machines-outils
4213;Construction de ponts et tunnels
3091;Fabrication de motocycles
6619B;Autres activités auxiliaires de services financiers, hors assurance et caisses de retraite, n.c.a.
5221;Services auxiliaires des transports terrestres
501;Transports maritimes et côtiers de passagers
4931Z;Transports urbains et suburbains de voyageurs
532;Autres activités de poste et de courrier
6611Z;Administration de marchés financiers
5110Z;Transports aériens de passagers
6209;Autres activités informatiques
6201;Programmation informatique
6312;Portails Internet
8291Z;Activités des agences de recouvrement de factures et des sociétés d'information financière sur la clientèle
91;Bibliothèques, archives, musées et autres activités culturelles
7721;Location et location-bail d'articles de loisirs et de sport
9492;Activités des organisations politiques
7010;Activités des sièges sociaux
9604Z;Entretien corporel
0163Z;Traitement primaire des récoltes
127;Culture de plantes à boissons
220;Exploitation forestière
13;Reproduction de plantes
0112Z;Culture du riz
2223;Fabrication d'éléments en matières plastiques pour la construction
2332Z;Fabrication de briques, tuiles et produits de construction, en terre cuite
2319Z;Fabrication et façonnage d'autres articles en verre, y compris verre technique
1623;Fabrication de charpentes et d'autres menuiseries
1610A;Sciage et rabotage du bois, hors imprégnation
1621;Fabrication de placage et de panneaux de bois
2017Z;Fabrication de caoutchouc synthétique
1610B;Imprégnation du bois
1811Z;Imprimerie de journaux
1920Z;Raffinage du pétrole
1042;Fabrication de margarine et graisses comestibles similaires
0910Z;Activités de soutien à l'extraction d'hydrocarbures
1101;Production de boissons alcooliques distillées
1092;Fabrication d'aliments pour animaux de compagnie
899;Autres activités extractives n.c.a.
1413Z;Fabrication de vêtements de dessus
1420;Fabrication d'articles en fourrure
1052;Fabrication de glaces et sorbets
1085Z;Fabrication de plats préparés
311;Pêche en mer
2825;Fabrication d'équipements aérauliques et frigorifiques industriels
2362;Fabrication d'éléments en plâtre pour la construction
2620;Fabrication d'ordinateurs et d'équipements périphériques
2733Z;Fabrication de matériel d'installation électrique
2592Z;Fabrication d'emballages métalliques légers
3102;Fabrication de meubles de cuisine
2391;Fabrication de produits abrasifs
5520Z;Hébergement touristique et autre hébergement de courte durée
6430Z;Fonds de placement et entités financières similaires
6619A;Supports juridiques de gestion de patrimoine mobilier
52;Entreposage et services auxiliaires des transports
5829A;Édition de logiciels système et de réseau
6612;Courtage de valeurs mobilières et de marchandises
7120B;Analyses, essais et inspections techniques
6020A;Edition de chaînes généralistes
582;Édition de logiciels
6512Z;Autres assurances
98;Activités indifférenciées des ménages en tant que producteurs de biens et services pour usage propre
7711A;Location de courte durée de voitures et de véhicules automobiles légers
